…
#allows base R modelling functions to be wrapped into a piped operations
```

I want to: 1) create a linear regression which predicts sepal length from sepal width 2) repeat for sepal length vs. petal width // sepal width vs. petal width // petal width vs. petal length etc. 3) try and predict whether the input value is of a sepal or a petal? 4) classify data and predict species (setosa, versicolor, virginica)

Give each flower a unique ID so they can be subset from the long dataframe - tidy the dataset (EACH VARIABLE has to be a column) - linear regression of length and width of each specie - need WIDTH and LENGTH as columns in dataframe

``` r
# first we must number the flowers from 1: end (number of rows in the dataset)
iris$Flower <- 1:nrow(iris)
iris
```

    ## # A tibble: 150 x 6
    ##    Sepal.Length Sepal.Width Petal.Length Petal.Width Species Flower
    ##           <dbl>       <dbl>        <dbl>       <dbl>  <fctr>  <int>
    ## 1           5.1         3.5          1.4         0.2  setosa      1
    ## 2           4.9         3.0          1.4         0.2  setosa      2
    ## 3           4.7         3.2          1.3         0.2  setosa      3
    ## 4           4.6         3.1          1.5         0.2  setosa      4
    ## 5           5.0         3.6          1.4         0.2  setosa      5
    ## 6           5.4         3.9          1.7         0.4  setosa      6
    ## 7           4.6         3.4          1.4         0.3  setosa      7
    ## 8           5.0         3.4          1.5         0.2  setosa      8
    ## 9           4.4         2.9          1.4         0.2  setosa      9
    ## 10          4.9         3.1          1.5         0.1  setosa     10
    ## # ... with 140 more rows

``` r
#original data
iris
```

    ## # A tibble: 150 x 6
    ##    Sepal.Length Sepal.Width Petal.Length Petal.Width Species Flower
    ##           <dbl>       <dbl>        <dbl>       <dbl>  <fctr>  <int>
    ## 1           5.1         3.5          1.4         0.2  setosa      1
    ## 2           4.9         3.0          1.4         0.2  setosa      2
    ## 3           4.7         3.2          1.3         0.2  setosa      3
    ## 4           4.6         3.1          1.5         0.2  setosa      4
    ## 5           5.0         3.6          1.4         0.2  setosa      5
    ## 6           5.4         3.9          1.7         0.4  setosa      6
    ## 7           4.6         3.4          1.4         0.3  setosa      7
    ## 8           5.0         3.4          1.5         0.2  setosa      8
    ## 9           4.4         2.9          1.4         0.2  setosa      9
    ## 10          4.9         3.1          1.5         0.1  setosa     10
    ## # ... with 140 more rows

``` r
#stage1

wide_iris <- iris %>%
  gather(key='key', value='value', -Species, -Flower) 

wide_iris
```

    ## # A tibble: 600 x 4
    ##    Species Flower          key value
    ##     <fctr>  <int>        <chr> <dbl>
    ## 1   setosa      1 Sepal.Length   5.1
    ## 2   setosa      2 Sepal.Length   4.9
    ## 3   setosa      3 Sepal.Length   4.7
    ## 4   setosa      4 Sepal.Length   4.6
    ## 5   setosa      5 Sepal.Length   5.0
    ## 6   setosa      6 Sepal.Length   5.4
    ## 7   setosa      7 Sepal.Length   4.6
    ## 8   setosa      8 Sepal.Length   5.0
    ## 9   setosa      9 Sepal.Length   4.4
    ## 10  setosa     10 Sepal.Length   4.9
    ## # ... with 590 more rows

``` r
#stage2

wide_iris <- iris %>%
  gather(key='key', value='value', -Species, -Flower) %>%
  separate(key, c('Part','Measure'), sep= "\\.")

wide_iris
```

    ## # A tibble: 600 x 5
    ##    Species Flower  Part Measure value
    ## *   <fctr>  <int> <chr>   <chr> <dbl>
    ## 1   setosa      1 Sepal  Length   5.1
    ## 2   setosa      2 Sepal  Length   4.9
    ## 3   setosa      3 Sepal  Length   4.7
    ## 4   setosa      4 Sepal  Length   4.6
    ## 5   setosa      5 Sepal  Length   5.0
    ## 6   setosa      6 Sepal  Length   5.4
    ## 7   setosa      7 Sepal  Length   4.6
    ## 8   setosa      8 Sepal  Length   5.0
    ## 9   setosa      9 Sepal  Length   4.4
    ## 10  setosa     10 Sepal  Length   4.9
    ## # ... with 590 more rows

``` r
#stage3

wide_iris <- iris %>%
  gather(key='key', value='value', -Species, -Flower) %>%
  separate(key, c('Part','Measure'), sep= "\\.") %>%
  spread(Measure, value)

wide_iris
```

    ## # A tibble: 300 x 5
    ##    Species Flower  Part Length Width
    ## *   <fctr>  <int> <chr>  <dbl> <dbl>
    ## 1   setosa      1 Petal    1.4   0.2
    ## 2   setosa      1 Sepal    5.1   3.5
    ## 3   setosa      2 Petal    1.4   0.2
    ## 4   setosa      2 Sepal    4.9   3.0
    ## 5   setosa      3 Petal    1.3   0.2
    ## 6   setosa      3 Sepal    4.7   3.2
    ## 7   setosa      4 Petal    1.5   0.2
    ## 8   setosa      4 Sepal    4.6   3.1
    ## 9   setosa      5 Petal    1.4   0.2
    ## 10  setosa      5 Sepal    5.0   3.6
    ## # ... with 290 more rows
…
### Randomly Sample

``` r
#set seed to make work reproducible
set.seed(12345)

#create sample vector (probabilities set @ 67% : 33%)
sample_set <- sample(2, nrow(iris_norm), replace=TRUE, prob= c(0.67, 0.33))

#add to tibble
iris_norm['sample_set'] <- sample_set
iris_norm
```

    ## # A tibble: 150 x 7
    ##    Sepal.Length Sepal.Width Petal.Length Petal.Width Species Flower
    ##           <dbl>       <dbl>        <dbl>       <dbl>  <fctr>  <int>
    ## 1    -0.8976739  1.01560199    -1.335752   -1.311052  setosa      1
    ## 2    -1.1392005 -0.13153881    -1.335752   -1.311052  setosa      2
    ## 3    -1.3807271  0.32731751    -1.392399   -1.311052  setosa      3
    ## 4    -1.5014904  0.09788935    -1.279104   -1.311052  setosa      4
    ## 5    -1.0184372  1.24503015    -1.335752   -1.311052  setosa      5
    ## 6    -0.5353840  1.93331463    -1.165809   -1.048667  setosa      6
    ## 7    -1.5014904  0.78617383    -1.335752   -1.179859  setosa      7
    ## 8    -1.0184372  0.78617383    -1.279104   -1.311052  setosa      8
    ## 9    -1.7430170 -0.36096697    -1.335752   -1.311052  setosa      9
    ## 10   -1.1392005  0.09788935    -1.279104   -1.442245  setosa     10
    ## # ... with 140 more rows, and 1 more variables: sample_set <int>
…
``` r
count(iris_test)
```

    ## # A tibble: 1 x 1
    ##       n
    ##   <int>
    ## 1    60

``` r
iris_training_labels
```

    ## # A tibble: 90 x 1
    ##    Species
    ##     <fctr>
    ## 1   setosa
    ## 2   setosa
    ## 3   setosa
    ## 4   setosa
    ## 5   setosa
    ## 6   setosa
    ## 7   setosa
    ## 8   setosa
    ## 9   setosa
    ## 10  setosa
    ## # ... with 80 more rows

``` r
iris_training
```

    ## # A tibble: 90 x 4
    ##    Sepal.Length Sepal.Width Petal.Length Petal.Width
    ##           <dbl>       <dbl>        <dbl>       <dbl>
    ## 1   -1.01843718   1.2450302    -1.335752   -1.311052
    ## 2   -0.53538397   1.9333146    -1.165809   -1.048667
    ## 3   -1.50149039   0.7861738    -1.335752   -1.179859
    ## 4   -1.01843718   0.7861738    -1.279104   -1.311052
    ## 5   -0.53538397   1.4744583    -1.279104   -1.311052
    ## 6   -1.25996379   0.7861738    -1.222456   -1.311052
    ## 7   -1.86378030  -0.1315388    -1.505695   -1.442245
    ## 8   -0.05233076   2.1627428    -1.449047   -1.311052
    ## 9   -0.17309407   3.0804554    -1.279104   -1.048667
    ## 10  -0.53538397   1.9333146    -1.392399   -1.048667
    ## # ... with 80 more rows
…
